[0527/211516.723:ERROR:registration_protocol_win.cc(102)] CreateFile: The system cannot find the file specified. (0x2)
[0527/223859.065:ERROR:registration_protocol_win.cc(102)] CreateFile: The system cannot find the file specified. (0x2)
[0528/035407.129:ERROR:registration_protocol_win.cc(102)] CreateFile: The system cannot find the file specified. (0x2)
[0528/231641.024:ERROR:registration_protocol_win.cc(102)] CreateFile: The system cannot find the file specified. (0x2)
[0609/065040.607:ERROR:registration_protocol_win.cc(102)] CreateFile: The system cannot find the file specified. (0x2)
[0609/074309.671:ERROR:registration_protocol_win.cc(102)] CreateFile: The system cannot find the file specified. (0x2)
[0617/063341.392:ERROR:registration_protocol_win.cc(102)] CreateFile: The system cannot find the file specified. (0x2)
[0621/170435.219:ERROR:registration_protocol_win.cc(102)] CreateFile: The system cannot find the file specified. (0x2)
[0621/232931.461:ERROR:registration_protocol_win.cc(102)] CreateFile: The system cannot find the file specified. (0x2)
[0622/171955.176:ERROR:registration_protocol_win.cc(102)] CreateFile: The system cannot find the file specified. (0x2)
[0623/003352.616:ERROR:registration_protocol_win.cc(102)] CreateFile: The system cannot find the file specified. (0x2)
[0709/080736.529:ERROR:registration_protocol_win.cc(102)] CreateFile: The system cannot find the file specified. (0x2)
[0713/195030.840:ERROR:registration_protocol_win.cc(102)] CreateFile: The system cannot find the file specified. (0x2)
[0713/202308.216:ERROR:registration_protocol_win.cc(102)] CreateFile: The system cannot find the file specified. (0x2)
